%YAML 1.1
%TAG !u! tag:unity3d.com,2011:
--- !u!21 &2100000
Material:
  serializedVersion: 6
  m_ObjectHideFlags: 0
  m_CorrespondingSourceObject: {fileID: 0}
  m_PrefabInstance: {fileID: 0}
  m_PrefabAsset: {fileID: 0}
  m_Name: StreetAssets_1
  m_Shader: {fileID: 4800000, guid: 8fa84e1c8f3a97b4bb416e8eb087630e, type: 3}
  m_ShaderKeywords: 
  m_LightmapFlags: 4
  m_EnableInstancingVariants: 0
  m_DoubleSidedGI: 0
  m_CustomRenderQueue: -1
  stringTagMap: {}
  disabledShaderPasses: []
  m_SavedProperties:
    serializedVersion: 3
    m_TexEnvs:
    - _BumpMap:
        m_Texture: {fileID: 2800000, guid: ae23320a570da2449ad374730da993f4, type: 3}
        m_Scale: {x: 1, y: 1}
        m_Offset: {x: 0, y: 0}
    - _EmmisTex:
        m_Texture: {fileID: 0}
        m_Scale: {x: 1, y: 1}
        m_Offset: {x: 0, y: 0}
    - _MainTex:
        m_Texture: {fileID: 2800000, guid: 36045a202ecfd3c448bcaef9223d6d61, type: 3}
        m_Scale: {x: 1, y: 1}
        m_Offset: {x: 0, y: 0}
    - _NormalTex:
        m_Texture: {fileID: 0}
        m_Scale: {x: 1, y: 1}
        m_Offset: {x: 0, y: 0}
    m_Floats:
    - _FresnelBrightness: 0
    - _FresnelPower: 0
    - _FresnelShadowDropoff: 0
    - _HighIntensity: 1.5
    - _LightScalar: 1
    - _LowIntensity: 1
    - _OutlineSize: 100
    - _RampLevels: 2
    - _RimAlpha: 0
    - _RimDropOff: 0
    - _RimPower: 0
    - _Shininess: 0.2921059
    m_Colors:
    - _Color: {r: 1, g: 1, b: 1, a: 1}
    - _FresnelColor: {r: 1, g: 1, b: 1, a: 1}
    - _HighColor: {r: 1, g: 1, b: 1, a: 1}
    - _LowColor: {r: 1, g: 1, b: 1, a: 1}
    - _OutlineColor: {r: 0, g: 0, b: 0, a: 1}
    - _RimColor: {r: 1, g: 1, b: 1, a: 1}
    - _SpecColor: {r: 0.5, g: 0.5, b: 0.5, a: 1}
  m_BuildTextureStacks: []
