%YAML 1.1
%TAG !u! tag:unity3d.com,2011:
--- !u!1045 &1
EditorBuildSettings:
  m_ObjectHideFlags: 0
  serializedVersion: 2
  m_Scenes:
  - enabled: 1
    path: Assets/Scenes/Menu.unity
    guid: b42420fbdc86c8941874c92691bb8898
  - enabled: 1
    path: Assets/Scenes/Tile.unity
    guid: c8d3d820f5eded8489d11458ae20a2dc
  - enabled: 1
    path: Assets/Scenes/GameOver.unity
    guid: b35b86c47041d9b4284401092c1f6022
  m_configObjects:
    com.unity.input.settings: {fileID: 11400000, guid: 20e8630c828d38c47b8f0e468c149cda, type: 2}
    com.unity.xr.management.loader_settings: {fileID: 11400000, guid: 334013dbb061aea418d4be5ab5bc1300, type: 2}
    com.unity.xr.openxr.settings4: {fileID: 11400000, guid: 78e376015fd14b641bca46b08fdabdf9, type: 2}
    xr.sdk.mock-hmd.settings: {fileID: 11400000, guid: 76ebbea69acd80c41a2fe2590ebb26d6, type: 2}
