%YAML 1.1
%TAG !u! tag:unity3d.com,2011:
--- !u!162 &1
EditorUserSettings:
  m_ObjectHideFlags: 0
  serializedVersion: 4
  m_ConfigSettings:
    RecentlyUsedScenePath-0:
      value: 224247031146467d010b142b122f5a33131b2b222d2c2322620c0532eff0383dadc22ee8ea2a33397931ec390a3b4f2afc031d12
      flags: 0
    RecentlyUsedScenePath-1:
      value: 2242470311464668191c092704637e0305120c39631b2535232c0e7cd1f4263de7f317faf43f2b2f0a01ea3201701431fb1e10
      flags: 0
    RecentlyUsedScenePath-2:
      value: 22424703114646680e0b0227036c711501572b292926237e38271427fb
      flags: 0
    RecentlyUsedScenePath-3:
      value: 22424703114646680e0b0227036c6c111b07142f1f2b233e2867083debf42d
      flags: 0
    RecentlyUsedScenePath-4:
      value: 22424703114646680e0b0227036c72111f192b292926237e38271427fb
      flags: 0
    RecentlyUsedScenePath-5:
      value: 22424703114646680e0b0227036c78111b12373c293a68252320092a
      flags: 0
    RecentlyUsedScenePath-6:
      value: 22424703114646680e0b0227036c6b191a12563f22213229
      flags: 0
    RecentlyUsedScenePath-7:
      value: 22424703114646680e0b0227036c72151802563f22213229
      flags: 0
    UnityEditor.ShaderGraph.Blackboard:
      value: 18135939215a0a5004000b0e15254b524c1119263f2d6a722016393ce1eb3d36e5d339f9a560393d3511ea7046333e09f7181d02f50a06241708ee0b05bd4a475f95548717f73713d91006c1c309d0effad0d2f9ddffa5828e91f0beb6fdd1cbfceba0b9f0b3bed8e8f5ace1ff8c978883d3f59e98969989eacfcc
      flags: 0
    UnityEditor.ShaderGraph.FloatingWindowsLayout2:
      value: 181344140043005e1a220d3b1f364b524c0c5a27130c293326201334cee5322ca0bd30e8eb293a707b0fd0180b3d0a36fc0d3d04e649500d1002ee0b5dbd1d2c27c00ad113cb1e10e41f1addc80993b98d9884a69ae6d8f0d1cda9e8fbfefaf9f9dea3fdb9ade882f0ffb0e1e380cafbf2c3adc18e9cd285a2908b82ec869c8395949c9483d68a8e97ddbd90bf
      flags: 0
    UnityEditor.ShaderGraph.InspectorWindow:
      value: 18135939215a0a5004000b0e15254b524c030a3f2964643d120d1230e9e93a3fd6e826abbd3c3e302a07a37e0901373ae01e0008f707250d171df81a53a5405d41895ac825e0100ec20313c0d91cddccd3d0c7efcca9bd88908fecb0f9cfddf1eff4e7a1b1eae482f0fcaee1e1928b86d888ed969b938797a7cf
      flags: 0
    vcSharedLogLevel:
      value: 0d5e400f0650
      flags: 0
  m_VCAutomaticAdd: 1
  m_VCDebugCom: 0
  m_VCDebugCmd: 0
  m_VCDebugOut: 0
  m_SemanticMergeMode: 2
  m_VCShowFailedCheckout: 1
  m_VCOverwriteFailedCheckoutAssets: 1
  m_VCProjectOverlayIcons: 1
  m_VCHierarchyOverlayIcons: 1
  m_VCOtherOverlayIcons: 1
  m_VCAllowAsyncUpdate: 1
